QUARTUS/BCD/simulation/qsim/BCD.msim.vcd
$comment
	File created using the following command:
		vcd file BCD.msim.vcd -direction
$end
$date
	Thu Mar 07 23:16:17 2019
$end
$version
	ModelSim Version 10.5b
$end
$timescale
	1ps
$end

$scope module bcd_agung_07111640000087_vhd_vec_tst $end
$var wire 1 ! SS [1] $end
$var wire 1 " SS [2] $end
$var wire 1 # SS [3] $end
$var wire 1 $ SS [4] $end
$var wire 1 % SS [5] $end
$var wire 1 & SS [6] $end
$var wire 1 ' SS [7] $end
$var wire 1 ( sw [3] $end
$var wire 1 ) sw [2] $end
$var wire 1 * sw [1] $end
$var wire 1 + sw [0] $end

$scope module i1 $end
$var wire 1 , gnd $end
$var wire 1 - vcc $end
$var wire 1 . unknown $end
$var wire 1 / devoe $end
$var wire 1 0 devclrn $end
$var wire 1 1 devpor $end
$var wire 1 2 ww_devoe $end
$var wire 1 3 ww_devclrn $end
$var wire 1 4 ww_devpor $end
$var wire 1 5 ww_sw [3] $end
$var wire 1 6 ww_sw [2] $end
$var wire 1 7 ww_sw [1] $end
$var wire 1 8 ww_sw [0] $end
$var wire 1 9 ww_SS [1] $end
$var wire 1 : ww_SS [2] $end
$var wire 1 ; ww_SS [3] $end
$var wire 1 < ww_SS [4] $end
$var wire 1 = ww_SS [5] $end
$var wire 1 > ww_SS [6] $end
$var wire 1 ? ww_SS [7] $end
$var wire 1 @ \SS[7]~output_o\ $end
$var wire 1 A \SS[6]~output_o\ $end
$var wire 1 B \SS[5]~output_o\ $end
$var wire 1 C \SS[4]~output_o\ $end
$var wire 1 D \SS[3]~output_o\ $end
$var wire 1 E \SS[2]~output_o\ $end
$var wire 1 F \SS[1]~output_o\ $end
$var wire 1 G \sw[3]~input_o\ $end
$var wire 1 H \sw[1]~input_o\ $end
$var wire 1 I \sw[2]~input_o\ $end
$var wire 1 J \sw[0]~input_o\ $end
$var wire 1 K \Mux6~0_combout\ $end
$var wire 1 L \Mux5~0_combout\ $end
$var wire 1 M \Mux4~0_combout\ $end
$var wire 1 N \Mux3~0_combout\ $end
$var wire 1 O \Mux2~0_combout\ $end
$var wire 1 P \Mux1~0_combout\ $end
$var wire 1 Q \Mux0~0_combout\ $end
$var wire 1 R \ALT_INV_Mux6~0_combout\ $end
$upscope $end
$upscope $end
$enddefinitions $end
#0
$dumpvars
0,
1-
x.
1/
10
11
12
13
14
1@
0A
0B
0C
0D
0E
0F
0G
0H
0I
0J
0K
0L
0M
0N
0O
0P
0Q
1R
0(
0)
0*
0+
05
06
07
08
09
0:
0;
0<
0=
0>
1?
0!
0"
0#
0$
0%
0&
1'
$end
#1000000
1+
18
1J
1L
1M
1N
1Q
1F
1C
1B
1A
19
1<
1=
1>
1&
1%
1$
1!
#2000000
0+
1*
08
17
1H
0J
1K
0M
0N
1O
0Q
0R
0F
1D
0C
0B
0@
09
1;
0<
0=
0?
0%
0$
1#
0!
0'
#3000000
1+
18
1J
1M
0O
0D
1B
0;
1=
1%
0#
#4000000
0+
0*
1)
08
07
16
1I
0H
0J
0L
1N
1Q
1F
1C
0A
19
1<
0>
0&
1$
1!
#5000000
1+
18
1J
0N
1P
0Q
0F
1E
0C
09
1:
0<
0$
1"
0!
#6000000
0+
1*
08
17
1H
0J
0M
0B
0=
0%
#7000000
1+
18
1J
0K
1L
1M
1N
0P
1R
0E
1C
1B
1A
1@
0:
1<
1=
1>
1?
1&
1%
1$
0"
1'
#8000000
0+
0*
0)
1(
08
07
06
15
1G
0I
0H
0J
1K
0L
0M
0N
0R
0C
0B
0A
0@
0<
0=
0>
0?
0&
0%
0$
0'
#9000000
1+
18
1J
1M
1B
1=
1%
#10000000
0+
1*
08
17
1H
0J
0M
1N
1C
0B
1<
0=
0%
1$
#11000000
1+
18
1J
0N
1P
1Q
1F
1E
0C
19
1:
0<
0$
1"
1!
#12000000
0+
0*
1)
08
07
16
1I
0H
0J
0K
1O
0Q
1R
0F
1D
1@
09
1;
1?
1#
0!
1'
#13000000
1+
18
1J
1K
1L
0O
0P
1Q
0R
1F
0E
0D
1A
0@
19
0:
0;
1>
0?
1&
0#
0"
1!
0'
#14000000
0+
1*
08
17
1H
0J
0L
1O
1P
0Q
0F
1E
1D
0A
09
1:
1;
0>
0&
1#
1"
0!
#15000000
1+
18
1J
1N
1C
1<
1$
